<?xml version="1.0" encoding="utf-8"?>
<!-- Generator: Adobe Illustrator 22.1.0, SVG Export Plug-In . SVG Version: 6.00 Build 0)  -->
<svg version="1.1" id="Ebene_1" xmlns="http://www.w3.org/2000/svg" xmlns:xlink="http://www.w3.org/1999/xlink" x="0px" y="0px"
	 viewBox="0 0 518 251.4" style="enable-background:new 0 0 518 251.4;" xml:space="preserve">
<style type="text/css">
	.st0{fill:#231F20;}
	.st1{fill:#FFFFFF;}
</style>
<g id="consulting_ag">
</g>
<g id="property_partners">
	<g>
		<circle class="st0" cx="125.7" cy="125" r="120.7"/>
		<g>
			<path class="st1" d="M55.2,160.3v-56.9l-8.1,56.9h-7.9l-8-56.9v56.9h-8.7V89.7h13.3l7.6,46.9l6.7-46.9h13.7v70.7H55.2z"/>
			<path class="st1" d="M92,160.3l-1.8-13H79.6l-1.6,13h-9.1l10-70.7h11.3l10.9,70.7H92z M84.5,102l-3.9,36.7H89L84.5,102z"/>
			<path class="st1" d="M105.8,160.3V89.7h23.3v8.8h-13.9v20.7h12.4v8.8h-12.3v23.4h13.8v8.9H105.8z"/>
			<path class="st1" d="M162.2,153.9c-1.5,6.8-7.4,6.4-9.5,6.4h-17.9V89.7h17.1c0.9,0,5-0.3,7.8,2.1c2.9,2.5,3,5.9,3,9.3v47
				C162.7,151,162.5,152.6,162.2,153.9z M153.3,103.2c0-0.7,0-1.4-0.1-2.1c-0.4-2.9-2.9-2.8-3.7-2.8h-5.4v53.3h6.2
				c2.1,0,3-0.6,3-3.9V103.2z"/>
			<path class="st1" d="M170.5,160.3V89.7h23.3v8.8h-13.9v20.7h12.4v8.8H180v23.4h13.8v8.9H170.5z"/>
			<path class="st1" d="M219.2,160.3c-1.2-6.6-1.4-8.1-1.4-14.8v-5c0-2.4-0.1-4.9-0.4-7.3c-0.2-1.7-0.5-3.4-1.7-4.5
				c-0.9-0.7-1.9-0.9-3-0.9h-3.8v32.5h-9.3V89.7h15.2c1.2,0,2.4,0,3.5,0.1c2.5,0.2,7.2,0.5,8.6,6.9c0.4,1.8,0.6,5.3,0.6,10.1
				c0,2.7,0,5.5-0.2,8.3c-0.1,1.8-0.4,4-1.1,5.6c-1.7,3.7-5.7,3.6-7.2,3.8c1.5,0.3,4.4-0.1,6.4,3c1.6,2.5,1.7,5.4,1.7,11.2v7.7
				c0,8,0.2,9.5,1.8,13.9H219.2z M218.1,101.6c-0.1-1.5-0.4-2.3-1-2.8c-0.6-0.6-1.6-0.6-3.4-0.6H209V120h4.4c2.4,0,3.8-0.6,4.4-3.1
				c0.4-1.7,0.5-5.9,0.5-10.8C218.3,104.6,218.2,103.1,218.1,101.6z"/>
		</g>
	</g>
	<g>
		<path d="M279.1,126.5c-3.2,3.9-8.5,4-11.3,4h-6.5v29h-4.4V95.9h9.9c3.9,0,8.2-0.2,11.4,2.5c3.4,2.8,3.4,6.9,3.4,11.6v7.2
			C281.7,120.7,281.6,123.6,279.1,126.5z M277.3,111.8c0-5.7-0.1-8.7-2.6-10.6c-1.6-1.3-3.1-1.5-6.8-1.5h-6.8v27.2h7.2
			c2.4,0,5-0.3,6.8-2.2c2.4-2.4,2.1-6.7,2.1-7.3L277.3,111.8L277.3,111.8z"/>
		<path d="M313.7,159.5l-11.6-31h-6.9v31h-4.4V95.9h12.3c3.2,0,6.3,0.2,9,2.2c3.7,2.9,3.5,7.6,3.5,8.8v9.9c0,0.2,0,2.6-0.4,4.1
			c-1.2,4.4-4.7,5.9-6.1,6.6c-0.7,0.3-1,0.4-2.3,0.7l11.6,31.2L313.7,159.5L313.7,159.5z M310.9,108.2c0-2.7-0.2-6-2.9-7.6
			c-1.5-0.8-3-0.9-4.6-0.9h-8.3v25h8.1c0.5,0,2.2,0,3.8-0.5c4-1.4,3.9-4.9,3.9-6.2L310.9,108.2L310.9,108.2z"/>
		<path d="M347.9,154.8c-1.4,2.3-4.7,5.5-11.2,5.5c-1.3,0-6.8-0.1-9.9-3.9c-2.5-3.1-2.8-6.8-2.8-10.5v-35.8c0-0.7,0-4.3,1-7.2
			c1.8-5.3,6.8-7.7,12.1-7.7c2.9,0,5.8,0.6,8.1,2.3c4.5,3.4,4.5,8.9,4.5,13.9v35.1C349.8,149.5,349.5,152.2,347.9,154.8z
			 M345.6,113.9c0-5.3-0.3-8.3-1.5-10.7c-0.4-0.7-1.1-2.1-2.9-3c-0.6-0.4-2.2-1-4.2-1c-2.5,0-4.1,0.9-4.9,1.4
			c-3.9,2.5-3.7,7.6-3.7,8.6v35c0,3.6,0.2,5.6,0.7,7.2c0.6,1.7,2.9,4.9,7.9,4.9c1.8,0,3.5-0.4,5-1.5c3.4-2.4,3.6-6.3,3.6-10
			L345.6,113.9L345.6,113.9z"/>
		<path d="M382.3,126.5c-3.2,3.9-8.5,4-11.3,4h-6.5v29H360V95.9h9.9c3.9,0,8.2-0.2,11.4,2.5c3.4,2.8,3.4,6.9,3.4,11.6v7.2
			C384.8,120.7,384.7,123.6,382.3,126.5z M380.5,111.8c0-5.7-0.1-8.7-2.6-10.6c-1.6-1.3-3.1-1.5-6.8-1.5h-6.7v27.2h7.2
			c2.4,0,5-0.3,6.8-2.2c2.4-2.4,2.1-6.7,2.1-7.3L380.5,111.8L380.5,111.8z"/>
		<path d="M398.2,99.9v24.5h14.9v3.9h-14.9v27.3h18.1v4h-22.4V95.9h22.5v4H398.2z"/>
		<path d="M446.8,159.5l-11.6-31h-6.9v31h-4.4V95.9h12.3c3.2,0,6.3,0.2,9,2.2c3.7,2.9,3.5,7.6,3.5,8.8v9.9c0,0.2,0,2.6-0.4,4.1
			c-1.2,4.4-4.7,5.9-6.1,6.6c-0.7,0.3-1,0.4-2.3,0.7l11.6,31.2L446.8,159.5L446.8,159.5z M444,108.2c0-2.7-0.2-6-2.9-7.6
			c-1.5-0.8-3-0.9-4.6-0.9h-8.3v25h8.1c0.5,0,2.2,0,3.8-0.5c4-1.4,3.9-4.9,3.9-6.2V108.2z"/>
		<path d="M468.5,99.9v59.6H464V99.9h-11.1v-4h26.8v4H468.5z"/>
		<path d="M498.6,131.4v28.1h-4.3v-28.1l-12.5-35.5h4.7l10.2,29.9l10.1-29.9h4.9L498.6,131.4z"/>
	</g>
</g>
</svg>
